{
  "hosting": {
    "site": "https://javierangular.web.app/",
    "public": "public"
  },
  "emulators": {
    "firestore": {
      "port": 8080
    }
  },
  "database": {
    "rules": "database.rules.json"
  },
  "firestore": {
    "rules": "firestore.rules",
    "indexes": "firestore.indexes.json"
  }
}
